<svg width="360" height="210" xmlns="http://www.w3.org/2000/svg">
<style>
svg {
  font-family: -apple-system, BlinkMacSystemFont, Segoe UI, Helvetica, Arial, sans-serif, Apple Color Emoji, Segoe UI Emoji;
  font-size: 14px;
  line-height: 21px;
}
#background {
  width: calc(100% - 10px);
  height: calc(100% - 10px);
  fill: rgb(26, 27, 39);
<!--   stroke: rgb(225, 228, 232); -->
  stroke-width: 0px;
  rx: 6px;
  ry: 6px;
}
foreignObject {
  width: calc(100% - 10px - 32px);
  height: calc(100% - 10px - 24px);
}
h2 {
  margin-top: 0;
  margin-bottom: 0.75em;
  line-height: 24px;
  font-size: 16px;
  font-weight: 600;
<!--   color: rgb(36, 41, 46); -->
<!--   fill: rgb(36, 41, 46); -->
  color: rgb(112, 164, 252);;
  fill: rgb(112, 164, 252);;
}
ul {
  list-style: none;
  padding-left: 0;
  margin-top: 0;
  margin-bottom: 0;
}
li {
  display: inline-flex;
  font-size: 12px;
  margin-right: 2ch;
  align-items: center;
  flex-wrap: nowrap;
  transform: translateX(-500%);
  animation-duration: 2s;
  animation-name: slideIn;
  animation-function: ease-in-out;
  animation-fill-mode: forwards;
}
@keyframes slideIn {
  to {
    transform: translateX(0);
  }
}
div.ellipsis {
  height: 100%;
  overflow: hidden;
  text-overflow: ellipsis;
}
.octicon {
  fill: rgb(88, 96, 105);
  margin-right: 0.5ch;
  vertical-align: top;
}
.progress {
  display: flex;
  height: 8px;
  overflow: hidden;
  background-color: rgb(26, 27, 39);
  border-radius: 6px;
  outline: 1px solid transparent;
  margin-bottom: 1em;
}
.progress-item {
  outline: 2px solid rgb(225, 228, 232);
  border-collapse: collapse;
}
.lang {
  font-weight: 600;
  margin-right: 4px;
<!--   color: rgb(36, 41, 46); -->
  color: rgb(56, 188, 173);
}
.percent {
  color: rgb(26, 27, 39);
}
</style>
<g>
<rect x="5" y="5" id="background" />
<g>
<foreignObject x="21" y="17" width="318" height="176">
<div xmlns="http://www.w3.org/1999/xhtml" class="ellipsis">

<h2>Languages Used (By File Size)</h2>

<div>
<span class="progress">
<span style="background-color: #DA5B0B;width: 84.096%;" class="progress-item"></span><span style="background-color: #00B4AB;width: 4.637%;" class="progress-item"></span><span style="background-color: #3572A5;width: 2.417%;" class="progress-item"></span><span style="background-color: #f34b7d;width: 1.780%;" class="progress-item"></span><span style="background-color: #b845fc;width: 1.168%;" class="progress-item"></span><span style="background-color: #3178c6;width: 0.755%;" class="progress-item"></span><span style="background-color: #DA3434;width: 0.702%;" class="progress-item"></span><span style="background-color: #a270ba;width: 0.700%;" class="progress-item"></span><span style="background-color: #ff3e00;width: 0.571%;" class="progress-item"></span><span style="background-color: #e34c26;width: 0.502%;" class="progress-item"></span><span style="background-color: #dea584;width: 0.466%;" class="progress-item"></span><span style="background-color: #563d7c;width: 0.407%;" class="progress-item"></span><span style="background-color: #f1e05a;width: 0.385%;" class="progress-item"></span><span style="background-color: #b07219;width: 0.359%;" class="progress-item"></span><span style="background-color: #555555;width: 0.223%;" class="progress-item"></span><span style="background-color: #60B5CC;width: 0.219%;" class="progress-item"></span><span style="background-color: #a53b70;width: 0.177%;" class="progress-item"></span><span style="background-color: #44a51c;width: 0.101%;" class="progress-item"></span><span style="background-color: #3c5caa;width: 0.072%;" class="progress-item"></span><span style="background-color: #89e051;width: 0.069%;" class="progress-item"></span><span style="background-color: #F05138;width: 0.058%;" class="progress-item"></span><span style="background-color: #178600;width: 0.033%;" class="progress-item"></span><span style="background-color: #384d54;width: 0.032%;" class="progress-item"></span><span style="background-color: #ba595e;width: 0.024%;" class="progress-item"></span><span style="background-color: #199f4b;width: 0.016%;" class="progress-item"></span><span style="background-color: #012456;width: 0.013%;" class="progress-item"></span><span style="background-color: #A97BFF;width: 0.005%;" class="progress-item"></span><span style="background-color: #4F5D95;width: 0.005%;" class="progress-item"></span><span style="background-color: #878787;width: 0.003%;" class="progress-item"></span><span style="background-color: #C1F12E;width: 0.003%;" class="progress-item"></span><span style="background-color: #438eff;width: 0.002%;" class="progress-item"></span><span style="background-color: #5e5086;width: 0.001%;" class="progress-item"></span><span style="background-color: #198CE7;width: 0.000%;" class="progress-item"></span>
</span>
</div>

<ul>


<li style="animation-delay: 0ms;">
<svg xmlns="http://www.w3.org/2000/svg" class="octicon" style="fill:#DA5B0B;"
viewBox="0 0 16 16" version="1.1" width="16" height="16"><path
fill-rule="evenodd" d="M8 4a4 4 0 100 8 4 4 0 000-8z"></path></svg>
<span class="lang">Jupyter Notebook</span>
<span class="percent">84.10%</span>
</li>


<li style="animation-delay: 150ms;">
<svg xmlns="http://www.w3.org/2000/svg" class="octicon" style="fill:#00B4AB;"
viewBox="0 0 16 16" version="1.1" width="16" height="16"><path
fill-rule="evenodd" d="M8 4a4 4 0 100 8 4 4 0 000-8z"></path></svg>
<span class="lang">Dart</span>
<span class="percent">4.64%</span>
</li>


<li style="animation-delay: 300ms;">
<svg xmlns="http://www.w3.org/2000/svg" class="octicon" style="fill:#3572A5;"
viewBox="0 0 16 16" version="1.1" width="16" height="16"><path
fill-rule="evenodd" d="M8 4a4 4 0 100 8 4 4 0 000-8z"></path></svg>
<span class="lang">Python</span>
<span class="percent">2.42%</span>
</li>


<li style="animation-delay: 450ms;">
<svg xmlns="http://www.w3.org/2000/svg" class="octicon" style="fill:#f34b7d;"
viewBox="0 0 16 16" version="1.1" width="16" height="16"><path
fill-rule="evenodd" d="M8 4a4 4 0 100 8 4 4 0 000-8z"></path></svg>
<span class="lang">C++</span>
<span class="percent">1.78%</span>
</li>


<li style="animation-delay: 600ms;">
<svg xmlns="http://www.w3.org/2000/svg" class="octicon" style="fill:#b845fc;"
viewBox="0 0 16 16" version="1.1" width="16" height="16"><path
fill-rule="evenodd" d="M8 4a4 4 0 100 8 4 4 0 000-8z"></path></svg>
<span class="lang">F#</span>
<span class="percent">1.17%</span>
</li>


<li style="animation-delay: 750ms;">
<svg xmlns="http://www.w3.org/2000/svg" class="octicon" style="fill:#3178c6;"
viewBox="0 0 16 16" version="1.1" width="16" height="16"><path
fill-rule="evenodd" d="M8 4a4 4 0 100 8 4 4 0 000-8z"></path></svg>
<span class="lang">TypeScript</span>
<span class="percent">0.76%</span>
</li>


<li style="animation-delay: 900ms;">
<svg xmlns="http://www.w3.org/2000/svg" class="octicon" style="fill:#DA3434;"
viewBox="0 0 16 16" version="1.1" width="16" height="16"><path
fill-rule="evenodd" d="M8 4a4 4 0 100 8 4 4 0 000-8z"></path></svg>
<span class="lang">CMake</span>
<span class="percent">0.70%</span>
</li>


<li style="animation-delay: 1050ms;">
<svg xmlns="http://www.w3.org/2000/svg" class="octicon" style="fill:#a270ba;"
viewBox="0 0 16 16" version="1.1" width="16" height="16"><path
fill-rule="evenodd" d="M8 4a4 4 0 100 8 4 4 0 000-8z"></path></svg>
<span class="lang">Julia</span>
<span class="percent">0.70%</span>
</li>


<li style="animation-delay: 1200ms;">
<svg xmlns="http://www.w3.org/2000/svg" class="octicon" style="fill:#ff3e00;"
viewBox="0 0 16 16" version="1.1" width="16" height="16"><path
fill-rule="evenodd" d="M8 4a4 4 0 100 8 4 4 0 000-8z"></path></svg>
<span class="lang">Svelte</span>
<span class="percent">0.57%</span>
</li>


<li style="animation-delay: 1350ms;">
<svg xmlns="http://www.w3.org/2000/svg" class="octicon" style="fill:#e34c26;"
viewBox="0 0 16 16" version="1.1" width="16" height="16"><path
fill-rule="evenodd" d="M8 4a4 4 0 100 8 4 4 0 000-8z"></path></svg>
<span class="lang">HTML</span>
<span class="percent">0.50%</span>
</li>


<li style="animation-delay: 1500ms;">
<svg xmlns="http://www.w3.org/2000/svg" class="octicon" style="fill:#dea584;"
viewBox="0 0 16 16" version="1.1" width="16" height="16"><path
fill-rule="evenodd" d="M8 4a4 4 0 100 8 4 4 0 000-8z"></path></svg>
<span class="lang">Rust</span>
<span class="percent">0.47%</span>
</li>


<li style="animation-delay: 1650ms;">
<svg xmlns="http://www.w3.org/2000/svg" class="octicon" style="fill:#563d7c;"
viewBox="0 0 16 16" version="1.1" width="16" height="16"><path
fill-rule="evenodd" d="M8 4a4 4 0 100 8 4 4 0 000-8z"></path></svg>
<span class="lang">CSS</span>
<span class="percent">0.41%</span>
</li>


<li style="animation-delay: 1800ms;">
<svg xmlns="http://www.w3.org/2000/svg" class="octicon" style="fill:#f1e05a;"
viewBox="0 0 16 16" version="1.1" width="16" height="16"><path
fill-rule="evenodd" d="M8 4a4 4 0 100 8 4 4 0 000-8z"></path></svg>
<span class="lang">JavaScript</span>
<span class="percent">0.38%</span>
</li>


<li style="animation-delay: 1950ms;">
<svg xmlns="http://www.w3.org/2000/svg" class="octicon" style="fill:#b07219;"
viewBox="0 0 16 16" version="1.1" width="16" height="16"><path
fill-rule="evenodd" d="M8 4a4 4 0 100 8 4 4 0 000-8z"></path></svg>
<span class="lang">Java</span>
<span class="percent">0.36%</span>
</li>


<li style="animation-delay: 2100ms;">
<svg xmlns="http://www.w3.org/2000/svg" class="octicon" style="fill:#555555;"
viewBox="0 0 16 16" version="1.1" width="16" height="16"><path
fill-rule="evenodd" d="M8 4a4 4 0 100 8 4 4 0 000-8z"></path></svg>
<span class="lang">C</span>
<span class="percent">0.22%</span>
</li>


<li style="animation-delay: 2250ms;">
<svg xmlns="http://www.w3.org/2000/svg" class="octicon" style="fill:#60B5CC;"
viewBox="0 0 16 16" version="1.1" width="16" height="16"><path
fill-rule="evenodd" d="M8 4a4 4 0 100 8 4 4 0 000-8z"></path></svg>
<span class="lang">Elm</span>
<span class="percent">0.22%</span>
</li>


<li style="animation-delay: 2400ms;">
<svg xmlns="http://www.w3.org/2000/svg" class="octicon" style="fill:#a53b70;"
viewBox="0 0 16 16" version="1.1" width="16" height="16"><path
fill-rule="evenodd" d="M8 4a4 4 0 100 8 4 4 0 000-8z"></path></svg>
<span class="lang">Sass</span>
<span class="percent">0.18%</span>
</li>


<li style="animation-delay: 2550ms;">
<svg xmlns="http://www.w3.org/2000/svg" class="octicon" style="fill:#44a51c;"
viewBox="0 0 16 16" version="1.1" width="16" height="16"><path
fill-rule="evenodd" d="M8 4a4 4 0 100 8 4 4 0 000-8z"></path></svg>
<span class="lang">QML</span>
<span class="percent">0.10%</span>
</li>


<li style="animation-delay: 2700ms;">
<svg xmlns="http://www.w3.org/2000/svg" class="octicon" style="fill:#3c5caa;"
viewBox="0 0 16 16" version="1.1" width="16" height="16"><path
fill-rule="evenodd" d="M8 4a4 4 0 100 8 4 4 0 000-8z"></path></svg>
<span class="lang">Racket</span>
<span class="percent">0.07%</span>
</li>


<li style="animation-delay: 2850ms;">
<svg xmlns="http://www.w3.org/2000/svg" class="octicon" style="fill:#89e051;"
viewBox="0 0 16 16" version="1.1" width="16" height="16"><path
fill-rule="evenodd" d="M8 4a4 4 0 100 8 4 4 0 000-8z"></path></svg>
<span class="lang">Shell</span>
<span class="percent">0.07%</span>
</li>


<li style="animation-delay: 3000ms;">
<svg xmlns="http://www.w3.org/2000/svg" class="octicon" style="fill:#F05138;"
viewBox="0 0 16 16" version="1.1" width="16" height="16"><path
fill-rule="evenodd" d="M8 4a4 4 0 100 8 4 4 0 000-8z"></path></svg>
<span class="lang">Swift</span>
<span class="percent">0.06%</span>
</li>


<li style="animation-delay: 3150ms;">
<svg xmlns="http://www.w3.org/2000/svg" class="octicon" style="fill:#178600;"
viewBox="0 0 16 16" version="1.1" width="16" height="16"><path
fill-rule="evenodd" d="M8 4a4 4 0 100 8 4 4 0 000-8z"></path></svg>
<span class="lang">C#</span>
<span class="percent">0.03%</span>
</li>


<li style="animation-delay: 3300ms;">
<svg xmlns="http://www.w3.org/2000/svg" class="octicon" style="fill:#384d54;"
viewBox="0 0 16 16" version="1.1" width="16" height="16"><path
fill-rule="evenodd" d="M8 4a4 4 0 100 8 4 4 0 000-8z"></path></svg>
<span class="lang">Dockerfile</span>
<span class="percent">0.03%</span>
</li>


<li style="animation-delay: 3450ms;">
<svg xmlns="http://www.w3.org/2000/svg" class="octicon" style="fill:#ba595e;"
viewBox="0 0 16 16" version="1.1" width="16" height="16"><path
fill-rule="evenodd" d="M8 4a4 4 0 100 8 4 4 0 000-8z"></path></svg>
<span class="lang">D</span>
<span class="percent">0.02%</span>
</li>


<li style="animation-delay: 3600ms;">
<svg xmlns="http://www.w3.org/2000/svg" class="octicon" style="fill:#199f4b;"
viewBox="0 0 16 16" version="1.1" width="16" height="16"><path
fill-rule="evenodd" d="M8 4a4 4 0 100 8 4 4 0 000-8z"></path></svg>
<span class="lang">Vim Script</span>
<span class="percent">0.02%</span>
</li>


<li style="animation-delay: 3750ms;">
<svg xmlns="http://www.w3.org/2000/svg" class="octicon" style="fill:#012456;"
viewBox="0 0 16 16" version="1.1" width="16" height="16"><path
fill-rule="evenodd" d="M8 4a4 4 0 100 8 4 4 0 000-8z"></path></svg>
<span class="lang">PowerShell</span>
<span class="percent">0.01%</span>
</li>


<li style="animation-delay: 3900ms;">
<svg xmlns="http://www.w3.org/2000/svg" class="octicon" style="fill:#A97BFF;"
viewBox="0 0 16 16" version="1.1" width="16" height="16"><path
fill-rule="evenodd" d="M8 4a4 4 0 100 8 4 4 0 000-8z"></path></svg>
<span class="lang">Kotlin</span>
<span class="percent">0.00%</span>
</li>


<li style="animation-delay: 4050ms;">
<svg xmlns="http://www.w3.org/2000/svg" class="octicon" style="fill:#4F5D95;"
viewBox="0 0 16 16" version="1.1" width="16" height="16"><path
fill-rule="evenodd" d="M8 4a4 4 0 100 8 4 4 0 000-8z"></path></svg>
<span class="lang">PHP</span>
<span class="percent">0.00%</span>
</li>


<li style="animation-delay: 4200ms;">
<svg xmlns="http://www.w3.org/2000/svg" class="octicon" style="fill:#878787;"
viewBox="0 0 16 16" version="1.1" width="16" height="16"><path
fill-rule="evenodd" d="M8 4a4 4 0 100 8 4 4 0 000-8z"></path></svg>
<span class="lang">Hack</span>
<span class="percent">0.00%</span>
</li>


<li style="animation-delay: 4350ms;">
<svg xmlns="http://www.w3.org/2000/svg" class="octicon" style="fill:#C1F12E;"
viewBox="0 0 16 16" version="1.1" width="16" height="16"><path
fill-rule="evenodd" d="M8 4a4 4 0 100 8 4 4 0 000-8z"></path></svg>
<span class="lang">Batchfile</span>
<span class="percent">0.00%</span>
</li>


<li style="animation-delay: 4500ms;">
<svg xmlns="http://www.w3.org/2000/svg" class="octicon" style="fill:#438eff;"
viewBox="0 0 16 16" version="1.1" width="16" height="16"><path
fill-rule="evenodd" d="M8 4a4 4 0 100 8 4 4 0 000-8z"></path></svg>
<span class="lang">Objective-C</span>
<span class="percent">0.00%</span>
</li>


<li style="animation-delay: 4650ms;">
<svg xmlns="http://www.w3.org/2000/svg" class="octicon" style="fill:#5e5086;"
viewBox="0 0 16 16" version="1.1" width="16" height="16"><path
fill-rule="evenodd" d="M8 4a4 4 0 100 8 4 4 0 000-8z"></path></svg>
<span class="lang">Haskell</span>
<span class="percent">0.00%</span>
</li>


<li style="animation-delay: 4800ms;">
<svg xmlns="http://www.w3.org/2000/svg" class="octicon" style="fill:#198CE7;"
viewBox="0 0 16 16" version="1.1" width="16" height="16"><path
fill-rule="evenodd" d="M8 4a4 4 0 100 8 4 4 0 000-8z"></path></svg>
<span class="lang">R</span>
<span class="percent">0.00%</span>
</li>



</ul>

</div>
</foreignObject>
</g>
</g>
</svg>
